"VertexLitGeneric"
{
   "$basetexture"  "models/mark2580/gtav/mp_apa_low/bedroom/gz_v_cs_tray01gz_v_cs_tray01_a"
   "$bumpmap"     "models/mark2580/gtav/mp_apa_low/bedroom/gz_v_cs_tray01gz_v_cs_tray01_a_n"
	
   $phong               1
   $phongfresnelranges  "[0.3 0.75 1.00]"
   $halflambert         1
   $phongexponent       50
   $phongboost          1
   $nocull              0

   $envmap             "env_cubemap" 
   $envmaptint         "[.01 .01 .01]"

   $alphatest 1   
}
