"VertexLitGeneric"
{
	"$baseTexture" "temporalassassin\weapons\hmagnum\magnum_diffuse"
	"$bumpmap" "temporalassassin\weapons\hmagnum\magnum_normal"

	"$ambientocclusion" "1"
	"$ambientoccltexture" "temporalassassin\weapons\hmagnum\magnum_ao"

	"$phong" "1"
	"$phongboost" "30"
	"$phongexponenttexture" "temporalassassin\weapons\hmagnum\halosp"
	"$phongalbedotint" "1"
	"$phongfresnelranges"	"[1 1 1]"
	"$basemapalphaphongmask" "1"

	"$envmap"					"env_cubemap"
	"$envmapfresnel"			"2"
	"$envmaptint"				"[.1 .1 .1]"

	"$detail" "temporalassassin\detail\dt_concrete3"
	"$detailscale" "30"
	"$detailblendfactor" "3"
	"$detailblendmode" "0"
}