"VertexLitGeneric"
{
	"$baseTexture" "temporalassassin\weapons\hmagnum\magnum_diffuse"
	"$bumpmap" "temporalassassin\weapons\hmagnum\magnum_normal"

	"$ambientocclusion" "1"
	"$ambientoccltexture" "temporalassassin\weapons\hmagnum\magnum_ao"
	
	"$envmap"					"env_cubemap"
	"$envmapfresnel"			"2"
	"$envmaptint"				"[.15 .15 .15]"

	"$phong" "1"
	"$phongboost" "20"
	"$phongexponenttexture" "temporalassassin\weapons\hmagnum\halosp"
	"$phongalbedotint" "1"
	"$phongfresnelranges"	"[1 1 1]"
	"$basemapalphaphongmask" "1"

	"$detail" "temporalassassin\detail\dt_metal2"
	"$detailscale" "20"
	"$detailblendfactor" "3"
	"$detailblendmode" "0"
}

