"VertexLitGeneric"
{
	"$baseTexture"				"TemporalAssassin/Arms_1/Gloves19"
	"$bumpmap"					"TemporalAssassin/Arms_1/Gloves_Normal"

	"$nocull"					"1"
	"$phong"					"1"
	"$phongboost"				"0.1"
	"$phongalbedoboost"			"2"
	"$phongexponent"			"20"
	"$phongfresnelranges"		"[.3 .3 .6]"
	"$normalmapalphaphongmask"	"0"

	"$basemapalphaphongmask"	"0"

	"$envmap"					"env_cubemap"
	"$envmapfresnel"			"1"
	"$envmaptint"				"[.01 .01 .01]"
	
	"$emissiveBlendEnabled" 		"1"
	"$emissiveBlendTexture"			"TemporalAssassin/Weapons/Whisper/TakenEffect"
	"$emissiveblendbasetexture"		"TemporalAssassin/Weapons/Whisper/Effect3"
	"$emissiveBlendFlowTexture"		"TemporalAssassin/Weapons/Whisper/WhisperOfTheWormFlowMap"
	"$emissiveblendtint" 			"[0.8 0 1]"
	"$emissiveBlendStrength" 		"0.35"
	"$emissiveBlendScrollVector" 	"[0.02 -0.01]"
	
	"$detail" "TemporalAssassin/detail/dt_leather1"
	"$detailscale" "4.5"
	"$detailblendfactor" "0.3"
	"$detailblendmode" "0"
}
