"VertexLitGeneric"
{
	"$baseTexture"				"TemporalAssassin/Arms_1/Gloves18"
	"$bumpmap"					"TemporalAssassin/Arms_1/Gloves_Normal"

	"$nocull"					"1"
	"$phong"					"1"
	"$phongboost"				"0.1"
	"$phongalbedoboost"			"2"
	"$phongexponent"			"20"
	"$phongfresnelranges"		"[.3 .3 .6]"
	"$normalmapalphaphongmask"	"0"

	"$basemapalphaphongmask"	"0"

	"$envmap"					"env_cubemap"
	"$envmapfresnel"			"1"
	"$envmaptint"				"[.01 .01 .01]"
	
	"$detail" "TemporalAssassin/detail/dt_leather1"
	"$detailscale" "4.5"
	"$detailblendfactor" "0.3"
	"$detailblendmode" "0"
}
