"VertexLitGeneric"
{
	"$baseTexture"				"TemporalAssassin/Arms_1/Pads_Nova_Mask"
	"$bumpmap"					"TemporalAssassin/Arms_1/Pads_Normal"

	"$nocull"					"1"
	"$phong"					"1"
	"$phongboost"				"0.1"
	"$phongalbedoboost"			"2"
	"$phongexponent"			"200"
	"$phongfresnelranges"		"[.3 .3 .6]"
	"$envmap"					"env_cubemap"
	"$envmapfresnel"			"1"
	"$envmaptint"				"[.02 .02 .02]"
	
	"$detail" "TemporalAssassin/detail/dt_metal1"
	"$detailscale" "20"
	"$detailblendfactor" "1.5"
	"$detailblendmode" "0"
}
