"VertexLitGeneric"
{
	"$basetexture"	"TemporalAssassin/NPC/Zombie_Hive/hive_large"
	"$bumpmap"	"TemporalAssassin/NPC/Zombie_Hive/hive_large_norm"
	"$phong" "1"
	"$phongexponent" 15
	"$phongboost"	"1"
	"$phongfresnelranges"	"[0.1 0.5 1]"
	"$nodecal"	1

	$selfillum 1
	$selfillummask "TemporalAssassin/NPC/Zombie_Hive/hive_large_glow"
	$selfillumtint "[1 1 1]"
}