"VertexlitGeneric"
{
	"$basetexture" "particle\magenta\3d\3d_freeze"
	"$vertexcolor" "1"
	"$vertexalpha" "1"
	"$translucent" "1"
 	"$model" 1
	"$nocull" "1"
	"$selfillum" "1"
	"$selfillummask" "particle\magenta\3d\3d_illum"
	"$additive" "1"
	"$nodecal" "1"
	"Proxies"
	{
		"TextureScroll"
		{
			"texturescrollvar" "$basetexturetransform"
			"texturescrollrate" 1
			"texturescrollangle" -90
		}
	}
}