"VertexlitGeneric"
{
	"$basetexture" "TemporalAssassin/Items/ShotgunAmmo/shotgun_shells_d"
	"$bumpmap" "TemporalAssassin/Items/ShotgunAmmo/shotgun_shells_n"
	"$color2" "[0.9 0.9 0.9]"
	"$nocull" "1"
   	"$halflambert" "1"
	"$nodecal" "1"

	"$phong" "1"
	"$phongboost" "1"
	"$phongfresnelranges"	"[2 4 6]"
	"$phongexponenttexture" "TemporalAssassin/Items/ShotgunAmmo/shotgun_shells_e"
	
	"$envmap" 					 "env_cubemap"
	"$normalmapalphaenvmapmask" "1"
	"$envmaptint" "[0.008 0.008 0.008]"
	"$PhongAlbedoTint" "1"
}
