"VertexLitGeneric"
{
	"$basetexture" 	"TemporalAssassin/Items/ShotgunAmmo/ShotgunAmmo"
	"$bumpmap" 	"TemporalAssassin/Items/ShotgunAmmo/ShotgunAmmo_Norm"
	"$phongexponenttexture" "TemporalAssassin/Items/ShotgunAmmo/ShotgunAmmo_Spec"
	"$color2" "[0 0 0]"
	"$blendTintByBaseAlpha"	"1"

	"$envmap" "env_cubemap"
	"$envmaptint" "[ .8 .5 .2 ]"

	"$phong" 			"1"
	"$phongboost" 			"7"
	"$phongfresnelranges"		"[4 4 6]"
	"$phongalbedotint" 			"1"
	"$phongalbedoboost" 		"48"
}