"VertexLitGeneric"
{
	"$baseTexture"				"TemporalAssassin/Weapons/Raikiri/TrueArcBlade"
	"$bumpmap"					"TemporalAssassin/Weapons/Raikiri/TrueArcBlade_Norm"

	"$nocull"					"1"
	"$phong"					"1"
	"$phongboost"				"5"
	"$phongalbedoboost"			"0"
	"$phongexponent"			"100"
	"$phongfresnelranges"		"[.3 .3 .6]"

	"$envmap"					"env_cubemap"
	"$envmapfresnel"			"1.4"
	"$envmaptint"				"[.2 .2 .2]"

	"$detail" "temporalassassin\detail\dt_metal2"
	"$detailscale" "40"
	"$detailblendfactor" "3"
	"$detailblendmode" "0"

	"$selfillum" "1"
	"$selfillummask" "TemporalAssassin\Weapons\Raikiri\TrueArcBlade_Glow"
	"$selfillumtint" "[0 1 1]"
	
	Proxies
	{
		"Sine"
		{
			resultVar	$selfillumtint
			sineperiod	0.1
			sinemin		0.8
			sinemax		0.999
		}
	}
}