"VertexlitGeneric" 
{ 
	"$basetexture" "models/mark2580/gtav/mp_apa_mid/hall/km_v_vu_armchair2"
    "$bumpmap"            "models/mark2580/gtav/mp_apa_mid/hall/km_v_vu_armchair_n"	
   "$nocull"      "1" 
 	"$envmap"             "env_cubemap" 
   "$envmaptint"         "[.05 .05 .05]" 
   "$normalmapalphaenvmapmask"    "1"

    "$detail"             "mark2580/gtav/shared/Detail_Cloth6"
	"$detailscale"        "10"
	"$detailblendfactor"  "0.3"
	"$detailblendmode"    "0"     
} 
