"VertexLitGeneric"
{
   "$basetexture"         "models/mark2580/gtav/mp_apa_hi_garage/garage_stuff/prop_metalfoodjar"
   "$bumpmap"             "models/mark2580/gtav/mp_apa_hi_garage/garage_stuff/prop_metalfoodjar_n" 
   
   $phong               1
   $phongfresnelranges  "[0.3 0.75 1.00]"
   $halflambert         1
   $phongexponent       10
   $phongboost          1
   $nocull              0

   $envmap             "env_cubemap" 
   $envmaptint         "[.01 .01 .01]"     
}
