"VertexlitGeneric" 
{ 
	"$basetexture" "models/mark2580/gtav/mp_apa_hi_garage/garage_stuff/prop_jar_glassprop_jar_glass_a" 
   "$nocull"      "1" 
 	"$envmap"             "env_cubemap" 
   "$envmaptint"         "[.05 .05 .05]" 
   "$normalmapalphaenvmapmask"    "1"
    $translucent 1   
} 