"VertexLitGeneric"
{
	"$basetexture" "models/props/SkyBox/TAS_Clouds01"
	"$translucent" "1"
	"$model" "1"
	"$nofog" "1"
	"$alpha" ".9"
	"$nodecal" "1"
	
	"$detail" "models/props/SkyBox/TAS_Clouds01"
	"$detailscale" "2"
	"$detailblendfactor" "1"
	"$detailblendmode" "2"
	
	"$ignorez" "0"
	
	"$bumpmap" "models/props/SkyBox/TAS_Clouds01_Normal"
	Proxies
	{
		TextureScroll
			{
				textureScrollVar "$basetexturetransform"
				textureScrollRate ".01"
				textureScrollAngle "90"
			}
		TextureScroll
			{
				textureScrollVar "$detailtexturetransform"
				textureScrollRate ".02"
				textureScrollAngle "80"
			}
	}	
}