"VertexLitGeneric"
{
	"$baseTexture"				"TemporalAssassin/Weapons/HerGift/HerGift2"
	"$bumpmap"					"TemporalAssassin/Weapons/HerGift/HerGift_Norm"

	"$nocull"					"1"
	"$phong"					"1"
	"$phongboost"				"0.25"
	"$phongalbedoboost"			"2"
	"$phongexponent"			"70"
	"$phongfresnelranges"		"[.4 .4 .7]"
	"$normalmapalphaphongmask"	"0"

	"$envmap"					"env_cubemap"
	"$envmapfresnel"			"1"
	"$envmaptint"				"[.035 .035 .035]"
	
	"$emissiveBlendEnabled" 		"1"
	"$emissiveBlendTexture"			"TemporalAssassin/Weapons/Whisper/Effect3"
	"$emissiveblendbasetexture"		"TemporalAssassin/Weapons/Whisper/Effect3"
	"$emissiveBlendFlowTexture"		"TemporalAssassin/Weapons/Whisper/WhisperOfTheWormFlowMap"
	"$emissiveblendtint" 			"[0.7 0.7 0.7]"
	"$emissiveBlendStrength" 		"0.5"
	"$emissiveBlendScrollVector" 	"[0.02 -0.01]"
	
	"$detail" "TemporalAssassin/detail/dt_metal1"
	"$detailscale" "40"
	"$detailblendfactor" "4"
	"$detailblendmode" "0"
}

//Materials (Original), Models (Items/Weapons) and Music portrayed in this Work is not
//created by myself and is used (hopefully, sorry in advance) under the copyright law
//of recreational purposes without profit.

//The credits for all of those belong to their original authors and creators who's work being
//in public domain has allowed me to make this game.

//Animations, Rigging, Programming, Particle Effects and Sound Effects are created by myself.
//My Animations and Sound Effects may be repurposed for personal projects but please let me
//know before hand, Credit where credit is due of course.

//However my Programming and Particle Effects should not be repurposed or used under any other context.
//Please respect my choice on this matter.

//Magenta Iris © 2018-2022