"VertexlitGeneric"
{
$basetexture "TemporalAssassin\Weapons\Gungnir\Gungnir_Body01_Diffuse"
$bumpmap "TemporalAssassin\Weapons\Gungnir\Gungnir_Body01_Normal"
$surfaceprop "Metal"

"$envmap"	"env_cubemap"
"$normalmapalphaenvmapmask"	"1"
"$envmaptint"	"[ 0.05 0.05 0.05 ]"
"$envmapfresnel" "1"

$phong "1"
$phongexponenttexture "TemporalAssassin\Weapons\Gungnir\Gungnir_Body01_exp"
$phongboost "55"
$phongfresnelranges "[.1 1 1]"
$phongalbedotint 1

$detail "TemporalAssassin\Weapons\Gungnir\Gungnir_DetailTexture_Metal"
$detailscale "4"
$detailblendfactor ".4"
$detailblendemode "1"
}