"Refract"
{
 	"$refractamount" 		"0.004"
 	"$bluramount" 			"2"

	"$scale" 			"[1 1]"

	"$dudvmap" 		"trails/tube_nrm.vtf"
	"$normalmap" 	"trails/tube_nrm.vtf"

	"$nocull" 1
	"$ignorez" 0
	
	"$refracttint" "[1.2 1 1.1]"

	"Refract_DX80"
	{
		"$fallbackmaterial" "null"
	}

	"Refract_DX60"
	{
		"$fallbackmaterial" "null"
	}
}

//Materials (Original), Models (Items/Weapons) and Music portrayed in this Work is not
//created by myself and is used (hopefully, sorry in advance) under the copyright law
//of recreational purposes without profit.

//The credits for all of those belong to their original authors and creators who's work being
//in public domain has allowed me to make this game.

//Animations, Rigging, Programming, Particle Effects and Sound Effects are created by myself.
//My Animations and Sound Effects may be repurposed for personal projects but please let me
//know before hand, Credit where credit is due of course.

//However my Programming and Particle Effects should not be repurposed or used under any other context.
//Please respect my choice on this matter.

//Magenta Iris © 2018-2022