"Refract"
{
       // "$basetexture"	"_rt_HDRFB16Bit"
	"$bumpmap" "effects/HL2MMod/HL2MMod_Distortion_1"
 	"$normalmap" "effects/HL2MMod/HL2MMod_Distortion_1"
 	"$Refractamount" "-.015"
 	$vertexalpha 1
 	$vertexcolor 1
 	$translucent 1
 	$forceRefract 1
 	$bluramount 0.3
 	//$nofog 1
 	$vertexcolormodulate 1
 	$NoCull 1
}

//Materials (Original), Models (Items/Weapons) and Music portrayed in this Work is not
//created by myself and is used (hopefully, sorry in advance) under the copyright law
//of recreational purposes without profit.

//The credits for all of those belong to their original authors and creators who's work being
//in public domain has allowed me to make this game.

//Animations, Rigging, Programming, Particle Effects and Sound Effects are created by myself.
//My Animations and Sound Effects may be repurposed for personal projects but please let me
//know before hand, Credit where credit is due of course.

//However my Programming and Particle Effects should not be repurposed or used under any other context.
//Please respect my choice on this matter.

//Magenta Iris © 2018-2022