"UnlitGeneric"
{
	"$basetexture" "effects/HL2MMod/HL2MMod_RandomSparks_2"
$additive 1
	$DEPTHBLEND 0.0
//    $blendframes 1
//$depthblend 75
//$distancealpha 0
//$softedges 0
//$overbrightfactor 2
	"$vertexcolor" 1
	"$vertexalpha" 1
}



//Materials (Original), Models (Items/Weapons) and Music portrayed in this Work is not
//created by myself and is used (hopefully, sorry in advance) under the copyright law
//of recreational purposes without profit.

//The credits for all of those belong to their original authors and creators who's work being
//in public domain has allowed me to make this game.

//Animations, Rigging, Programming, Particle Effects and Sound Effects are created by myself.
//My Animations and Sound Effects may be repurposed for personal projects but please let me
//know before hand, Credit where credit is due of course.

//However my Programming and Particle Effects should not be repurposed or used under any other context.
//Please respect my choice on this matter.

//Magenta Iris © 2018-2022