"LightmappedGeneric"
{
	"$basetexture" "Brick/TAS_BrickWall01b_Diffuse"
	"$surfaceprop" "brick"

	"$detail" "detail\noise_detail_01"
	"$detailscale" "7.740"
	"$detailblendfactor" .8

	"$envmap" "env_cubemap"
	"$normalmapalphaenvmapmask" "1"
	"$envmaptint" ".5 .5 .5"

	"$detailblendmode" 0
	"%keywords" "c17industrial,wasteland"
	"$bumpmap" "Brick/TAS_BrickWall01b_Normal"
}