Subrect
{
$Material "TemporalAssassin\Decals\Bullets\Decals_Bullets"
$Pos "192 256"
$Size "64 64"
$modelmaterial "TemporalAssassin/Decals/Bullets/Tile/Tile3"
$decal 1
$decalscale "0.15"
$decalScaleVariation "0.15"
}
