"VertexlitGeneric" 
{ 
	"$basetexture" "models/mark2580/gtav/mp_apa_06/shared_apa_mp_h_06/mh_v_aph_halolight_d" 
   "$nocull"      "1" 
 	"$envmap"             "env_cubemap" 
   "$envmaptint"         "[.05 .05 .05]" 
   "$normalmapalphaenvmapmask"    "1" 
   	   "$selfillum"	       "1"
   "$selfillumtint"    "[2 2 2]"
} 
