"vertexlitgeneric"
{
"$basetexture" "TemporalAssassin\Weapons\AutoShotgun\weapon_devastator_d"
"$bumpmap" "TemporalAssassin\Weapons\AutoShotgun\weapon_devastator_n"
"$PhongExponentTexture" "TemporalAssassin\Weapons\AutoShotgun\weapon_devastator_s"
"$envmap"                        "env_cubemap"      
"$envmaptint"                    "[-0.25 -0.4 -0.4]" 
"$normalmapalphaenvmapmask"      "1"
"$phong"                         "1"
"$phongboost"                    "14"
"$phongfresnelranges" "[3.6 6 6.6]"
"$phongalbedotint"			"1"
"$envmapfresnel"		"0.1"
"$phongexponent" "20"
"$halflambert" 	   "1"
"$nocull" "1"
	
"$detail" "TemporalAssassin/detail/dt_metal5"
"$detailscale" "30"
"$detailblendfactor" "3"
"$detailblendmode" "0"
}
