"VertexlitGeneric" 
{ 
	"$basetexture" "models/mark2580/gtav/mp_apa_low/lobby/gz_v_fa_lampbase01" 
    "$bumpmap"     "models/mark2580/gtav/mp_apa_low/lobby/gz_v_fa_lampbase01_n" 
   
   $phong               1
   $phongfresnelranges  "[0.3 0.75 1.00]"
   $halflambert         1
   $phongexponent       10
   $phongboost          0.3
   $nocull              0 
} 
