"VertexlitGeneric" 
{ 
	"$basetexture" "models/mark2580/gtav/mp_apa_06/lobby/tl_v_office_elev_display" 
   "$nocull"      "1" 
 	"$envmap"             "env_cubemap" 
   "$envmaptint"         "[.5 .5 .5]" 
   "$normalmapalphaenvmapmask"    "1"

   "$selfillum"	       "1"
   "$selfillumtint"    "[1 1 1]"   
} 
