"VertexLitGeneric"
{
	"$baseTexture"				"TemporalAssassin/Items/Beer/Beer2"
	"$bumpmap"					"TemporalAssassin/Items/Beer/Beer_Norm"

	"$phong"					"1"
	"$phongboost"				"600"
	"$phongalbedoboost"			"0"
	"$phongexponent"			"15"
	"$phongfresnelranges"		"[.1 .2 .45]"
	"$normalmapalphaphongmask"	"0"
	"$halflambert" 				"1"

	"$envmap"					"env_cubemap"
	"$envmapfresnel"			"1"
	"$envmaptint"				"[.2 .2 .2]"
	
	"$detail" "TemporalAssassin\detail\dt_smooth1"
	"$detailscale" "20"
	"$detailblendfactor" "2"
	"$detailblendmode" "0"
}

//Materials (Original), Models (Items/Weapons) and Music portrayed in this Work is not
//created by myself and is used (hopefully, sorry in advance) under the copyright law
//of recreational purposes without profit.

//The credits for all of those belong to their original authors and creators who's work being
//in public domain has allowed me to make this game.

//Animations, Rigging, Programming, Particle Effects and Sound Effects are created by myself.
//My Animations and Sound Effects may be repurposed for personal projects but please let me
//know before hand, Credit where credit is due of course.

//However my Programming and Particle Effects should not be repurposed or used under any other context.
//Please respect my choice on this matter.

//Magenta Iris © 2018-2022

//These Textures for the Beer Can and the Beer Can Model itself are created by Nessinby!