"VertexLitGeneric"
{
"$basetexture" "TemporalAssassin\Weapons\Flatline\flatline_ar_d"
"$bumpmap" "TemporalAssassin\Weapons\Flatline\flatline_ar_n"
"$PhongExponentTexture" "TemporalAssassin\Weapons\Flatline\flatline_ar_e"
"$color2"	               "[0.7 0.7 0.7]"
"$normalmapalphaenvmapmask" 1
"$envmap" "env_cubemap"
"$envmapfresnel" 			"1"
"$envmapFresnelMinMaxExp"		"[0 .4 1]"
"$envmaptint" "[.02 .02 .02]"
"$phong" 		"1"
"$phongalbedotint" 			"1"
"$phongalbedoboost" "35"
"$phongboost" "30"
"$phongfresnelranges" "[1.5 4.7 8.7]"
"$halflambert" "1"
"$ambientocclusion" "1"
"$nocull" "1"

"$detail"						"temporalassassin\detail\dt_metal5"
"$detailscale"					"15"
"$detailblendfactor"			"2"
"$detailblendmode"				"0"
}