"UnlitGeneric"
{
	$basetexture "TemporalAssassin\Weapons\Reiterpallasch\Reiterpallasch_Vials_Diffuse"
	$bumpmap "TemporalAssassin\Weapons\Reiterpallasch\Reiterpallasch_Vials_Normal"
	$surfaceprop "plastic"
	$selfillum "1"

	$detail "TemporalAssassin\Weapons\Reiterpallasch\Reiterpallasch_DetailTexture_Fluid"
	$detailscale "10"
	$detailblendfactor "1"
	$detailblendemode "1"

	Proxies
	{		
		TextureScroll
		{
			textureScrollVar "$detailtexturetransform"
			textureScrollRate ".05"
			textureScrollAngle "90"
		}
	}	
}