"LightmappedGeneric" 
{
   "$basetexture"         "mark2580\gtav\mp_apa_low/os_v_fa_wood02"
   "$bumpmap"            "mark2580\gtav\mp_apa_low/gz_v_fa_wood02_n" 
   "$envmap"                   "env_cubemap"
   "$normalmapalphaenvmapmask" "1"
   "$envmapcontrast"           "1"
   "$envmapsaturation"         "1"
   "$envmaptint"               "[ .15 .15 .15 ]"
   "$surfaceprop"              "wood"
}
