"VertexLitGeneric"
{
   "$basetexture"         "models/mark2580/gtav/mp_apa_mid/kitchen/gz_v_ml_wood01"
   "$bumpmap"             "dev/bump_normal" 
   
   $phong               1
   $phongfresnelranges  "[0.3 0.75 1.00]"
   $halflambert         1
   $phongexponent       10
   $phongboost          0.1
   $nocull              0   
}
