"cable"
{
	"$basetexture"		"cable\Combine_Cable01_Lit"
	"$bumpmap"			"cable\cablenormalmap"
	"$vertexcolor"		1
	"$nocull"			1
	"$MinLight"			2
	"$MaxLight"			2
	
	"Proxies"
	{
		"AnimatedTexture"
		{
		"animatedTextureVar" "$basetexture"
		"animatedTextureFrameNumVar" "$frame"
		"animatedTextureFrameRate" "30"
		}
	} 
}