"LightmappedGeneric"
{
	"$basetexture" "facepunch/cardboardtheory/apartment/glass"
	"$envmap" "env_cubemap"
	"$surfaceprop" "glass"
	"%keywords" "neotokyo"
	"$envmapmask" "facepunch/cardboardtheory/apartment/normalglassmask_ivy"
	"$translucent" 1
	"$envmapcontrast" 1
	"$envmapsaturation" 1
	"$envmaptint" "[ .1 .1 .1]"
}
