"VertexLitGeneric"
{
	"$baseTexture"				"TemporalAssassin/Weapons/Falanran/Falanran"
	"$bumpmap"					"TemporalAssassin/Weapons/Falanran/Falanran_Norm"

	"$nocull"					"1"
	"$phong"					"1"
	"$phongboost"				"5"
	"$phongalbedoboost"			"1"
	"$phongexponent"			"100"
	"$phongfresnelranges"		"[.3 .3 .6]"
	"$normalmapalphaphongmask"	"1"

	"$envmap"					"env_cubemap"
	"$envmapfresnel"			"1.2"
	"$envmaptint"				"[.05 .05 .05]"
	
	"$emissiveBlendEnabled" 		"1"
	"$emissiveBlendTexture"			"TemporalAssassin/Weapons/Whisper/TakenEffect2"
	"$emissiveblendbasetexture"		"TemporalAssassin/detail/BlueEnergy"
	"$emissiveBlendFlowTexture"		"TemporalAssassin/Weapons/Whisper/WhisperOfTheWormFlowMap"
	"$emissiveblendtint" 			"[1 1 1]"
	"$emissiveBlendStrength" 		"0.05"
	"$emissiveBlendScrollVector" 	"[0.1 -0.05]"
	
	"$detail" "TemporalAssassin/detail/dt_metal1"
	"$detailscale" "20"
	"$detailblendfactor" "0.5"
	"$detailblendmode" "0"
	
	"Proxies"
	{
		"Sine"
		{
			"resultVar" "$phongexponent"
			"sineperiod" 0.2
			"sinemin" 25

			"sinemax" 50
		}
		"Sine"
		{
			"resultVar" "$phongboost"
			"sineperiod" 0.5
			"sinemin" 2

			"sinemax" 4
		}
	}
}