"VertexLitGeneric"
{
	"$baseTexture"				"TemporalAssassin/Weapons/Falanran/Falanran2"
	"$bumpmap"					"TemporalAssassin/Weapons/Falanran/Falanran2_Norm"

	"$nocull"					"1"
	"$phong"					"1"
	"$phongboost"				"5"
	"$phongalbedoboost"			"1"
	"$phongexponent"			"100"
	"$phongfresnelranges"		"[.3 .3 .6]"
	"$normalmapalphaphongmask"	"1"

	"$envmap"					"env_cubemap"
	"$envmapfresnel"			"1.2"
	"$envmaptint"				"[.05 .05 .05]"
	
	"$detail" "TemporalAssassin/detail/dt_metal1"
	"$detailscale" "20"
	"$detailblendfactor" "0.5"
	"$detailblendmode" "0"
}