Subrect
{
$Material "TemporalAssassin\Decals\Bullets\Decals_Modify"
$Pos "32 416"
$Size "32 32"
$modelmaterial "TemporalAssassin/Decals/Bullets/Dirt/Dirt4"
$decal 1
$decalscale "0.075"
$decalScaleVariation "0.15"
}
