"VertexlitGeneric" 
{ 
	"$basetexture" "models/mark2580/gtav/mp_apa_06/kitchen/ak_dlc_din_chairolive_d" 
    "$bumpmap"            "dev/bump_normal"		

     "$normalmapalphaenvmapmask"    "1"
	 "$nocull"                      "1"  

	    "$halflambert"        "1"
	    "$envmap"             "env_cubemap"
	    "$envmaptint"         "[0.3 0.3 0.3]" 
        "$envmapsaturation"   "0" 
} 
