"VertexLitGeneric"
{
	"$baseTexture" "TemporalAssassin/Weapons/GriseusSpecial/GriseusSpecial"
	"$bumpMap" "TemporalAssassin/Weapons/GriseusSpecial/GriseusSpecial_Norm"
	"$nocull" 1
	
	"$phongexponent" "100"
	"$phongalbedotint" 3
	"$phong" "1"
	"$phongboost"	"1"
	"$phongfresnelranges"	"[.5 .9 1.4]"
	"$phongwarptexture" "TemporalAssassin\Wraps\darkgray2"

	"$envmap" "env_cubemap"
	"$normalmapalphaenvmpmask"	"1"
	"$envmaptint"	"[.01 .01 .02]"
	"$envmapfresnel"	"2"

	$selfillum 1
	$selfillummask "TemporalAssassin/Weapons/GriseusSpecial/GriseusSpecial_Glow"
	$selfillumtint "[0 0.2 1]"

	"$detail" "temporalassassin\detail\dt_wood2"
	"$detailscale" "10"
	"$detailblendfactor" "1"
	"$detailblendmode" "0"
}

//Materials (Original), Models (Items/Weapons) and Music portrayed in this Work is not
//created by myself and is used (hopefully, sorry in advance) under the copyright law
//of recreational purposes without profit.

//The credits for all of those belong to their original authors and creators who's work being
//in public domain has allowed me to make this game.

//Animations, Rigging, Programming, Particle Effects and Sound Effects are created by myself.
//My Animations and Sound Effects may be repurposed for personal projects but please let me
//know before hand, Credit where credit is due of course.

//However my Programming and Particle Effects should not be repurposed or used under any other context.
//Please respect my choice on this matter.

//Magenta Iris © 2018-2022