"VertexLitGeneric"
{
	"$baseTexture"				"TemporalAssassin/Items/EquipAllLocker/Locker"
	"$bumpmap"					"TemporalAssassin/Items/EquipAllLocker/Locker_Norm"

	"$nocull"					"1"
	"$phong"					"1"
	"$phongboost"				"0.05"
	"$phongalbedoboost"			"1"
	"$phongexponent"			"100"
	"$phongfresnelranges"		"[.1 .1 .1]"
	"$normalmapalphaphongmask"	"0"

	"$envmap"					"env_cubemap"
	"$envmapfresnel"			"1"
	"$envmaptint"				"[.01 .01 .01]"
	
	"$detail" "TemporalAssassin/Detail/dt_metal6"
	"$detailscale" "20"
	"$detailblendfactor" "1"
	"$detailblendmode" "0"
}

//Materials (Original), Models (Items/Weapons) and Music portrayed in this Work is not
//created by myself and is used (hopefully, sorry in advance) under the copyright law
//of recreational purposes without profit.

//The credits for all of those belong to their original authors and creators who's work being
//in public domain has allowed me to make this game.

//Animations, Rigging, Programming, Particle Effects and Sound Effects are created by myself.
//My Animations and Sound Effects may be repurposed for personal projects but please let me
//know before hand, Credit where credit is due of course.

//However my Programming and Particle Effects should not be repurposed or used under any other context.
//Please respect my choice on this matter.

//Magenta Iris © 2018-2022