Subrect
{
$Material "TemporalAssassin\Decals\Bullets\Decals_Bullets"
$Pos "128 96"
$Size "32 32"
$modelmaterial "TemporalAssassin/Decals/Bullets/Cardboard/Cardboard3"
$decal 1
$decalscale "0.075"
$decalScaleVariation "0.1"
}
