"UnlitTwoTexture"
{
	"$basetexture" "effects/binary_noise_B_01"
	"$surfaceprop" "glass"
	"$translucent" 1
	"$texture2"	"models/props_combine/combinescanline"
//	"$selfillum" "1"
//	"$mod2x" "1"
	"$additive" "1"

	"Proxies"
	{

		"Sine"
		{
			"resultVar" "$color[0]"
			"sineperiod" .1
			"sinemin" .98
			"sinemax" 1
		}
		"Sine"
		{
			"resultVar" "$color[1]"
			"sineperiod" .1
			"sinemin" .98
			"sinemax" 1
		}
		"Sine"
		{
			"resultVar" "$color[2]"
			"sineperiod" .1
			"sinemin" .99
			"sinemax" 1
		}

		"TextureScroll"
		{
			"texturescrollvar" "$texture2transform"
			"texturescrollrate" 1
			"texturescrollangle" -90
		}
		"TextureScroll"
		{
			"texturescrollvar" "$basetexturetransform"
			"texturescrollrate" 0.5
			"texturescrollangle" 90
		}

	}

}

//Materials (Original), Models (Items/Weapons) and Music portrayed in this Work is not
//created by myself and is used (hopefully, sorry in advance) under the copyright law
//of recreational purposes without profit.

//The credits for all of those belong to their original authors and creators who's work being
//in public domain has allowed me to make this game.

//Animations, Rigging, Programming, Particle Effects and Sound Effects are created by myself.
//My Animations and Sound Effects may be repurposed for personal projects but please let me
//know before hand, Credit where credit is due of course.

//However my Programming and Particle Effects should not be repurposed or used under any other context.
//Please respect my choice on this matter.

//Magenta Iris © 2018-2022