"Subrect"
{
	"$Material"	"TemporalAssassin\Decals\Bullets\Decals_Modify"
	"$Pos"		"128  128"
	"$Size"		"128 128"
	"$decalscale" 	0.11
	"$modelmaterial" "TemporalAssassin/Decals/Bullets/Glass/Glass2"
}