"VertexLitGeneric"
{
	$basetexture				"TemporalAssassin/Weapons/SiameseSpectre/Sniper_Barrel"
	$bumpmap					"TemporalAssassin/Weapons/SiameseSpectre/Sniper_Barrel_Norm"
	$phongexponenttexture 		"TemporalAssassin/Weapons/SiameseSpectre/Sniper_Barrel_Spec"

	$model						"1"
    $color						"[ 1 1 1 ]"
	$nocull						1
	
	$rimlight					"1"
	$rimlightexponent       	"80"
	$rimmask					"1"
	$rimlightboost          	"2.5"	

	$phong  					"1"
	$phongboost 				"20"
	$basemapalphaphongmask		"1"
	$phongfresnelranges 		"[ 0.1 0.5 1 ]"
	$phongtint 					"[1 1 .85]"

	$envmap						"env_cubemap"
	$basemapalphaenvmapmask		"1"
	$envmaptint               	"[ .05 .05 .05 ]"
	
	"$emissiveBlendEnabled" "1"
	"$emissiveBlendTexture" "TemporalAssassin/Detail/SpecialFX1"
	"$emissiveblendbasetexture" "TemporalAssassin/Detail/SpecialFX4"
	"$emissiveBlendFlowTexture"	"TemporalAssassin/Weapons/Whisper/WhisperOfTheWormFlowMap"
	"$emissiveblendtint" "[1 1 1]"
	"$emissiveBlendStrength" 		"0.01"
	"$emissiveBlendScrollVector" 	"[0.4 -0.2]"

	"$detail" "temporalassassin\detail\dt_wood2"
	"$detailscale" "17"
	"$detailblendfactor" "2.5"
	"$detailblendmode" "0"
}
