"vertexlitGeneric"
{
	"$baseTexture" "models\props_skybox\Building04"
	"$surfaceprop" "metal"
	"$envmap" "env_cubemap"
	"$envmapmask" "models\props_skybox\Building04_spec"
	"$envmaptint" "[.3 .3 .3]"
	"$envmapcontrast" .01
}
