"vertexlitGeneric"
{
	"$baseTexture" "models\props_skybox\Building06b"
	"$surfaceprop" "metal"
	"$envmap" "env_cubemap"
	"$envmapmask" "models\props_skybox\Building06_spec"
	"$envmaptint" "[.3 .3 .3]"
	"$envmapcontrast" .01
	"$selfillum" 1
}
