"vertexlitGeneric"
{
	"$baseTexture" "models\props_skybox\craneWire"
	"$surfaceprop" "metal"	
	//"$envmap" "env_cubemap"
	//"$envmapalphamask" "models\props_skybox\craneWire_spec"
	//"$envmaptint" "[.4 .4 .4]"
	//"$envmapcontrast" .01
	"$nocull" 1
	"$translucent" 1
}
