"vertexlitGeneric"
{
	"$baseTexture" "models\props_skybox\RadioTower_sg"
	"$surfaceprop" "metal"
	//"$envmap" "env_cubemap"
	//"$envmapalphamask" "models\props_skybox\RadioTower_sg"
	//"$envmaptint" "[.4 .4 .4]"
	//"$envmapcontrast" .01
	"$nocull" 1
	"$alphatest" 1
}
