"vertexlitGeneric"
{
	"$baseTexture" "models\props_skybox\skybox_watertower"
	"$surfaceprop" "metal"
        "$bumpmap" "models\props_skybox\skybox_watertower_normal" 
	"$phong" "1"
	"$phongexponent" "45"
	"$phongboost" "1"	
	"$phongfresnelranges"	"[1 2 6]"
	"$phongexponenttexture" "models\props_skybox\skybox_watertower_exp"

}
