"VertexLitGeneric"
{
	"$basetexture" "combine/CombineDebris01a_Diffuse"
	"$surfaceprop" "metal"
	"%keywords" "combine"
	"$bumpmap" "combine/CombineDebris01a_Normal"
	"$envmap" "env_cubemap"	"$envmaptint" "[ .56 .67 .75 ]"
	"$normalmapalphaenvmapmask" 1
	"$envmapcontrast" 1
	"$envmapsaturation" 1
	
	"$detail" "detail\metal_detail_01"
	"$detailscale" "4"
	"$detailblendfactor" "4"
	"$detailblendmode" "0"
}
