Subrect
{
$Material "TemporalAssassin\Decals\Bullets\Decals_Modify"
$Pos "192 64"
$Size "64 64"
$modelmaterial "TemporalAssassin/Decals/Bullets/Computer/Computer4"
$decal 1
$decalscale "0.075"
$decalScaleVariation "0.15"
}
