"VertexlitGeneric"
{
	"$basetexture" "TemporalAssassin/Corzo/jyohanshin"
	"$bumpmap" "TemporalAssassin/Corzo/hanyou_ind"
	"$phong" "1"
	"$phongexponent" "33" 
	"$phongboost" "15"
	"$phongfresnelranges"   "[0.001 0.4 4]"
	"$phongexponentmask" "TemporalAssassin/Corzo/PLO1_fureneru.vtf"
	"$rimlight" "1"
	"$rimlightexponent" "1"
	"$rimlightboost" "1"
}
