"LightmappedGeneric"
{
	"$baseTexture" "signs\neon1ani"
	"$surfaceprop" "glass"
	"$selfillum" "1"
	"%keywords" "neotokyo"
	"Proxies" 
       { 
         "AnimatedTexture" 
         { 
            "animatedTextureVar" "$basetexture" 
            "animatedTextureFrameNumVar" "$frame" 
            "animatedTextureFrameRate" "2" 
         }
    } 
 }


