"VertexLitGeneric"
{
    "$basetexture" "TemporalAssassin/Items/Armour_1/Armour_1"
	
	"$phong"					"1"
	"$phongboost"				"1"
	"$phongalbedoboost"			"1"
	"$phongexponent"			"10"
	"$phongfresnelranges"		"[1.1 2.4 3.8]"
	"$normalmapalphaphongmask"	"0"

	"$envmap"					"env_cubemap"
	"$envmapfresnel"			"2"
	"$envmaptint"				"[.1 .1 .1]"
}