vertexlitgeneric
{
$baseTexture "TemporalAssassin/PlayerModel/Kit_Hood"
$bumpmap "TemporalAssassin/PlayerModel/Kit_Hood_Norm"
"$rimlight" "1"
"$rimlightexponent" "5"
"$rimlightboost" "1"
"$rimmask" "1"
"$nocull" "1"
"$color2" "[0.4 0.2 0]"

"$detail" "TemporalAssassin/detail/dt_fabric1"
"$detailscale" "18"
"$detailblendfactor" "1.5"
"$detailblendmode" "0"
}
