"VertexLitGeneric"
{
	"$baseTexture" "TemporalAssassin/PlayerModel/Kit_Hair1"
	"$bumpmap" "TemporalAssassin/PlayerModel/Kit_Hair1_Norm"
	"$translucent" "1"
	"$nocull" "1"
	
	$detail "TemporalAssassin/Doll/Hair_Detail"
	$detailscale 20
	$detailblendfactor 2
	$detailblendmode 0
	
	"$phong" "1"
	"$phongexponent" "12.0"
	"$phongboost" "0.8"
	"$phongfresnelranges"	"[0.1 0.3 0.9]"
}

//Materials (Original), Models (Items/Weapons) and Music portrayed in this Work is not
//created by myself and is used (hopefully, sorry in advance) under the copyright law
//of recreational purposes without profit.

//The credits for all of those belong to their original authors and creators who's work being
//in public domain has allowed me to make this game.

//Animations, Rigging, Programming, Particle Effects and Sound Effects are created by myself.
//My Animations and Sound Effects may be repurposed for personal projects but please let me
//know before hand, Credit where credit is due of course.

//However my Programming and Particle Effects should not be repurposed or used under any other context.
//Please respect my choice on this matter.

//Magenta Iris © 2018-2022