"Unlitgeneric"
{
	"$basetexture" "TemporalAssassin/Decals/Bullets/Gungnir/Gungnir_Scorch1Red_G"
	"$decalscale" 0.1
	"$decal" 1
	"$vertexcolor" 1
	"$vertexalpha" 1
	"$translucent" 1
	
	"$decalfadeduration" "1"
	"$decalfadetime" "1"
	"$decalsecondpass" "1"
}
