"vertexlitgeneric"
{
	"$baseTexture" "TemporalAssassin/NPC_Skins/Hunter1/mini_armor_basecolor"
	"$bumpmap" "models/ministrider/mini_armor_normal"
	"$envmap" "env_cubemap"
	"$normalmapalphaenvmapmask" 1
	"$envmaptint" "[ .1 .1 .1 ]"
	"$envmapconstrast" "1"
	"$nodecal" "1"
	"$model" "1"
	// -- From here down is new stuff which will only be applied if $phong is set to 1 --

	"$phong"     "1"
	"$phongexponent"  "5"
	"$phongboost"   "1"
	"$phongfresnelranges"   "[1 .7 .3]"
//	"$phongwarptexture"  "models/ministrider/mini_iridescence"
	"Proxies"
	{
		"IsNPC"
		{
			"scale" "4.0"
			"resultvar" "$selfillumtint"
		}
	}
}


//Materials (Original), Models (Items/Weapons) and Music portrayed in this Work is not
//created by myself and is used (hopefully, sorry in advance) under the copyright law
//of recreational purposes without profit.

//The credits for all of those belong to their original authors and creators who's work being
//in public domain has allowed me to make this game.

//Animations, Rigging, Programming, Particle Effects and Sound Effects are created by myself.
//My Animations and Sound Effects may be repurposed for personal projects but please let me
//know before hand, Credit where credit is due of course.

//However my Programming and Particle Effects should not be repurposed or used under any other context.
//Please respect my choice on this matter.

//Magenta Iris © 2018-2022