"Vertexlitgeneric"
{
"$basetexture"            	"TemporalAssassin\Weapons\Shotgun2\hndg"
"$bumpmap"	                "TemporalAssassin\Weapons\Shotgun2\hndg_n"
"$phongexponenttexture"       "TemporalAssassin\Weapons\Shotgun2\hndg_s"

"$normalmapalphaenvmapmask" 1
"$envmap" "env_cubemap"
"$envmapfresnel" "-0.15"
"$envmaptint" "[ .15 .15 .15 ]"

"$phong" 		"1"
"$phongboost" "50"
"$phongalbedotint" 			"1"
"$phongalbedoboost" "25"
"$phongfresnelranges" "[1.8 4.5 7.4]"
"$halflambert" "1"
"$ambientocclusion" "1"
"$nocull" "0"

"$detail" "temporalassassin\detail\dt_metal2"
"$detailscale" "15"
"$detailblendfactor" "4"
"$detailblendmode" "0"
}
