"VertexLitGeneric"
{
	"$bumpmap" "TemporalAssassin/NPC_Skins/Combine1/universal_bump"
	"$surfaceprop" "flesh"
	"$selfillum" 1
	"$model" 1
	"$phong" 1
	"$phongboost" "5"
	"$halflambert" "1"
	"$phongexponenttexture" "TemporalAssassin/NPC_Skins/Combine1/universal_phong"
	"$phongalbedotint" "1"										
	"$phongfresnelranges"	"[.1 .5 1.0]"

	// Use separate self-illum mask on Pre DX9 hardware
	">=dx90_20b"
	{
		"$baseTexture" 		"TemporalAssassin/NPC_Skins/Combine1/combinesoldiersheet"
		"$selfillummask" 	"Models/Combine_soldier/combinesoldierselfillummask"
	}

	// Use redundant self-illum in base alpha on Pre DX9 hardware
	"<dx90_20b"
	{
		"$baseTexture"  "TemporalAssassin/NPC_Skins/Combine1/combinesoldiersheet"
	}
}


//Materials (Original), Models (Items/Weapons) and Music portrayed in this Work is not
//created by myself and is used (hopefully, sorry in advance) under the copyright law
//of recreational purposes without profit.

//The credits for all of those belong to their original authors and creators who's work being
//in public domain has allowed me to make this game.

//Animations, Rigging, Programming, Particle Effects and Sound Effects are created by myself.
//My Animations and Sound Effects may be repurposed for personal projects but please let me
//know before hand, Credit where credit is due of course.

//However my Programming and Particle Effects should not be repurposed or used under any other context.
//Please respect my choice on this matter.

//Magenta Iris © 2018-2022