"LightmappedGeneric"
{
	"%compiledetail" "1"
	"$basetexture" "Concrete/TAS_TrimSet_Concrete01b_Diffuse"
	"$surfaceprop" "concrete"

	"$detail" "detail\noise_detail_01"
	"$detailscale" "7.740"
	"$detailblendfactor" .8
	
	"$envmap" "env_cubemap"
	"$normalmapalphaenvmapmask" "1"
	"$envmaptint" ".5 .5 .5"

	"$detailblendmode" 0
	"%keywords" "concrete,structure"
	"$bumpmap" "Concrete/TAS_TrimSet_Concrete01b_Normal"
}