"VertexLitGeneric"
{
	"$baseTexture" "TemporalAssassin/Props/Resting_Point/stone1"
	"$bumpmap"	"TemporalAssassin/Props/Resting_Point/stone1_norm"

	"$detail"						"temporalassassin\detail\dt_rock2"
	"$detailscale"					"5"
	"$detailblendfactor"			"4"
	"$detailblendmode"				"0"
}
