"VertexLitGeneric"
{
	"$baseTexture"				"TemporalAssassin/Weapons/RoaringWolf/NewBullet"
	"$bumpmap"					"TemporalAssassin/Weapons/RoaringWolf/NewBullet_Norm"
	"$nocull"				"1"
	
	"$color2" "[0.6 0.6 0.6]"
	
	$blendtintbybasealpha 0
	
	"$phong"					"1"
	"$phongboost"				"8"
	"$phongfresnelranges"		"[1.4 3.3 4.1]"

	"$envmap"					"env_cubemap"
	"$envmapfresnel"			"-1"
	"$envmaptint"				"[1.1 1.1 1.1]"
	
	"$detail" "TemporalAssassin/detail/dt_metal2"
	"$detailscale" "15"
	"$detailblendfactor" "1"
	"$detailblendmode" "0"
}