"VertexLitGeneric"
{
	"$baseTexture"				"TemporalAssassin/Weapons/RoaringWolf/RoaringWolf"
	"$bumpmap"					"TemporalAssassin/Weapons/RoaringWolf/RoaringWolf_Norm2"
	"$phongexponenttexture"		"TemporalAssassin/Weapons/RoaringWolf/RoaringWolf_Maple_Spec"

	"$nocull"					"1"
	
	"$phong"					"1"
	"$phongboost"					"10"
	//"$phongboost"				"20"
	//"$phongexponent"				"5"
	"$phongexponent"				"15"
	"$phongfresnelranges"		"[1.0 3.3 4.1]"
	"$phongalbedotint"			"1"
	"$phongalbedoboost"			"25"

	$color2 "[0.35 0.35 0.35]"
	$blendtintbybasealpha 1

	"$envmap"					"env_cubemap"
	"$envmapfresnel"			"1"
	"$envmaptint"					"[.035 .035 .035]"
	"$normalmapalphaenvmapmask"		"1"
	"$halflambert"					"1"
	
	"$detail" "TemporalAssassin/detail/dt_metal2"
	"$detailscale" "20"
	"$detailblendfactor" "2"
	"$detailblendmode" "0"
}

// NEW ROARING WOLF SPEC AND COLOURS BY MAPLE!