"VertexLitGeneric"
{
	"$basetexture"			"TemporalAssassin\Weapons\RoaringWolf\SpeedLoader"
	"$bumpmap"			"TemporalAssassin\Weapons\RoaringWolf\SpeedLoader_Norm"
	"$phongexponenttexture"		"TemporalAssassin\Weapons\RoaringWolf\SpeedLoader_EXP"
	"$basetexturealphaenvmapmask"	"1"
	"$envmap"			"env_cubemap"
	"$envmaptint"			"[0.5 0.5 0.5]"
	"$envmapfresnel"			".5"
	"$nocull"				"1"

	"$phong"				"1"
	"$phongboost"			"2"
	"$phongfresnelranges"		"[2 3 4]"
	"$halflambert"			"1"

	"$rimlight"			"1"
	"$rimlightexponent"			"100"
	"$rimlightboost"			"1"
	"$rimmask"			"1"
}
