Subrect
{
$Material "TemporalAssassin\Decals\Bullets\Decals_Modify"
$Pos "0 0"
$Size "64 64"
$decal 1
$decalscale 0.1
$decalScaleVariation "0.25"
$modelmaterial "TemporalAssassin/Decals/Bullets/Brick/Brick1"
}