"VertexLitGeneric"
{
	"$baseTexture"				"TemporalAssassin/Legs/L_Cloth_Jester"
	"$bumpmap"					"TemporalAssassin/Legs/L_Jacket_Norm_Jester"

	"$nocull"					"1"
	"$phong"					"1"
	"$phongboost"				"0.2"
	"$phongalbedoboost"			"2"
	"$phongexponent"			"100"
	"$phongfresnelranges"		"[.3 .3 .6]"
	"$normalmapalphaphongmask"	"0"

	"$basemapalphaphongmask"	"0"

	"$envmap"					"env_cubemap"
	"$envmapfresnel"			"1"
	"$envmaptint"				"[.04 .04 .04]"
	
	"$detail" "TemporalAssassin/detail/dt_fabric2"
	"$detailscale" "30"
	"$detailblendfactor" "1"
	"$detailblendmode" "0"
}


//Materials (Original), Models (Items/Weapons) and Music portrayed in this Work is not
//created by myself and is used (hopefully, sorry in advance) under the copyright law
//of recreational purposes without profit.

//The credits for all of those belong to their original authors and creators who's work being
//in public domain has allowed me to make this game.

//Animations, Rigging, Programming, Particle Effects and Sound Effects are created by myself.
//My Animations and Sound Effects may be repurposed for personal projects but please let me
//know before hand, Credit where credit is due of course.

//However my Programming and Particle Effects should not be repurposed or used under any other context.
//Please respect my choice on this matter.

//Magenta Iris © 2018-2022