"VertexLitGeneric"
{
	"$baseTexture"				"TemporalAssassin/Legs/L_Jacket7"
	"$bumpmap"					"TemporalAssassin/Legs/L_Jacket_Norm"

	"$nocull"					"1"
	"$phong"					"1"
	"$phongboost"				"0.1"
	"$phongalbedoboost"			"2"
	"$phongexponent"			"200"
	"$phongfresnelranges"		"[.3 .3 .6]"
	"$normalmapalphaphongmask"	"0"

	"$basemapalphaphongmask"	"0"

	"$envmap"					"env_cubemap"
	"$envmapfresnel"			"1"
	"$envmaptint"				"[.01 .01 .01]"
	
	"$detail" "TemporalAssassin/detail/dt_fabric1"
	"$detailscale" "30"
	"$detailblendfactor" "1"
	"$detailblendmode" "0"
}
