"VertexLitGeneric"
{
	"$baseTexture"				"TemporalAssassin/Legs/L_Jacket13"
	"$bumpmap"					"TemporalAssassin/Legs/L_Jacket_Norm"

	"$nocull"					"1"
	"$phong"					"1"
	"$phongboost"				"0.1"
	"$phongalbedoboost"			"2"
	"$phongexponent"			"200"
	"$phongfresnelranges"		"[.3 .3 .6]"
	"$normalmapalphaphongmask"	"0"

	"$basemapalphaphongmask"	"0"

	"$envmap"					"env_cubemap"
	"$envmapfresnel"			"1"
	"$envmaptint"				"[.01 .01 .01]"
	
	"$emissiveBlendEnabled" 		"1"
	"$emissiveBlendTexture"			"TemporalAssassin/Weapons/Whisper/Effect3"
	"$emissiveblendbasetexture"		"TemporalAssassin/Weapons/Whisper/Effect3"
	"$emissiveBlendFlowTexture"		"TemporalAssassin/Weapons/Whisper/WhisperOfTheWormFlowMap"
	"$emissiveblendtint" 			"[0.7 0.7 0.7]"
	"$emissiveBlendStrength" 		"0.5"
	"$emissiveBlendScrollVector" 	"[0.02 -0.01]"
	
	"$detail" "TemporalAssassin/detail/dt_fabric1"
	"$detailscale" "30"
	"$detailblendfactor" "1"
	"$detailblendmode" "0"
	
	"$color2" "[1 1 1]"
	
	"Proxies"
	{
		"Sine"
		{
			resultVar	$color2
			sineperiod	2
			sinemin		0.8
			sinemax		0.95
		}
	}
}
