"vertexlitGeneric"
{
	"$baseTexture" "\models\props_building\jumbotron_sign_mat1b_ani"
	"$surfaceprop" "computer"
	"$selfillum" 1

	"Proxies"
	{
		"TextureScroll"
		{
			"texturescrollvar" "$baseTextureTransform"
			"texturescrollrate" .12
			"texturescrollangle" 180.00
		}
 		"AnimatedTexture" 
         	{ 
            		"animatedTextureVar" "$basetexture" 
            		"animatedTextureFrameNumVar" "$frame" 
            		"animatedTextureFrameRate" "2" 
         	}
	}

}

