"VertexLitGeneric"
{
    "$basetexture" "TemporalAssassin/Items/SinFragment/SinCrystal"
	"$selfillum" "1"
	"$selfillummask" "TemporalAssassin/Items/SinFragment/SinIllum"
	
	"$emissiveBlendEnabled" "1"
	"$emissiveBlendTexture" "TemporalAssassin/Detail/SpecialFX1"
	"$emissiveblendbasetexture" "TemporalAssassin/Detail/SpecialFX2"
	"$emissiveBlendFlowTexture"	"TemporalAssassin/Detail/SpecialFX1"
	"$emissiveblendtint" "[1 1 1]"
	"$emissiveBlendStrength" 		"1"
	"$emissiveBlendScrollVector" 	"[0.2 -0.1]"
}