"VertexLitGeneric"
{
	"$baseTexture" "TemporalAssassin/Weapons/PistolHD/Pistol"
	"$bumpMap" "TemporalAssassin/Weapons/PistolHD/Pistol_Norm"
	"$nocull" 1
	
	"$phongexponent" "50"
	"$phongalbedotint" 3
	"$phong" "1"
	"$phongboost"	"1"
	"$phongfresnelranges"	"[.5 .9 1.4]"
	$phongwarptexture "TemporalAssassin\Wraps\coldblue"

	"$envmap" "env_cubemap"
	"$normalmapalphaenvmapmask"	"1"
	"$envmaptint"	"[.01 .01 .02]"
	"$envmapfresnel"	"2"

	"$detail" "temporalassassin\detail\dt_fabric1"
	"$detailscale" "25"
	"$detailblendfactor" "1.5"
	"$detailblendmode" "0"
}