"VertexLitGeneric"
{
"$basetexture" "TemporalAssassin\Weapons\FoolsOath\FoolsOath"
"$bumpmap" "TemporalAssassin\Weapons\FoolsOath\FoolsOath_N"
"$PhongExponentTexture" "TemporalAssassin\Weapons\FoolsOath\FoolsOath_E"
"$color2"	               "[0.8 0.8 0.8]"

"$selfillum" "1"
"$selfillummask" "TemporalAssassin/Weapons/FoolsOath/FoolsOath_SI"

"$detail" "temporalassassin\detail\dt_metal6"
"$detailscale" "30"
"$detailblendfactor" "3"
"$detailblendmode" "0"	

"$lightwarptexture" "TemporalAssassin/Weapons/FoolsOath/LightWarp"

"$normalmapalphaenvmapmask" 1

"$envmap" "env_cubemap"
"$envmapfresnel" "0.5"
"$envmaptint" "[.02 .02 .02]"

"$phong" 		"1"
"$phongalbedotint" 			"1"
"$phongboost" "20"
"$phongfresnelranges" "[1.5 4.7 8.7]"

"$halflambert" "1"
"$nocull" "1"
}