"Unlitgeneric"
{
	"$basetexture" "TemporalAssassin/Decals/Bullets/LStar/LStar_Scorch1_G"
	"$decalscale" 0.13
	"$decal" 1
	"$vertexcolor" 1
	"$vertexalpha" 1
	"$translucent" 1
	
	"$decalfadeduration" "2"
	"$decalfadetime" "2"
	"$decalsecondpass" "1"
}
