"VertexlitGeneric" 
{ 
	"$basetexture" "models/mark2580/gtav/mp_apa_06/bathroom/mh_v_aph_bathmat_d" 
   "$nocull"      "1" 
 	"$envmap"             "env_cubemap" 
   "$envmaptint"         "[.05 .05 .05]" 
   "$normalmapalphaenvmapmask"    "1" 
} 
