"vertexlitGeneric"
{
	"$baseTexture" "models\props_office\cabinet_integratedb"
	"$surfaceprop" "metalvent"
	"$bumpmap" "models\props_office\cabinet_integrated2_normal"
	"$envmap" "env_cubemap"
	"$envmaptint" "[.9 .9 .9]"
	"$envmapcontrast" .7
	"$normalmapalphaenvmapmask" 1
	"$selfillum" 1
}
