"vertexlitGeneric"
{
	"$baseTexture" "models\props_office\janitor_supplies"
	"$surfaceprop" "plastic"
	"$bumpmap" "models\props_office\janitor_supplies_normal" 
	"$phong" "1"
	"$phongexponent" "6"
	"$phongboost" "1"	
	"$phongfresnelranges"	"[1 2 6]"
	"$phongexponenttexture" "models\props_office\janitor_supplies_exp"
	
}
