"VertexLitGeneric"
{ 

	"$basetexture" "models/props_office/shoji01.vmt" 
 	"$surfaceprop" "wood"
	"$envmap" "env_cubemap"
	"$envmaptint" "[.08 .08 .08]"
	"$envmapmask" "models/props_office/shoji_mask.vmt"
}