"vertexlitGeneric"
{

	"$baseTexture" "models\props_tech\server_cabinet01_mat2"
	"$surfaceprop" "metal"
 	"$bumpmap" "models\props_tech\server_cabinet01_mat2_normal" 
	"$phong" "1"
	"$phongexponent" "2"
	"$phongboost" "1"	
	"$phongfresnelranges"	"[1 2 6]"
	"$phongexponenttexture" "models\props_tech\server_cabinet01_mat2_exp"
	"$selfillum" 1
  	"Proxies" 
       		{ 
         	"AnimatedTexture" 
         	{ 
           	"animatedTextureVar" "$basetexture" 
           	"animatedTextureFrameNumVar" "$frame" 
            	"animatedTextureFrameRate" "2" 
         	}
    		} 
}

