"VertexLitGeneric"
{
	"$surfaceprop" 		"flesh"
	"$model" 		"1"
	"$nocull"		"1"
	"$baseTexture" 		"TemporalAssassin/PlayerModel/Datharon/Datharon"
	"$bumpmap" 			"TemporalAssassin/PlayerModel/Datharon/Datharon_Norm"
	"$phong"     		"1"
	"$phongexponent"  	"44"
	"$phongboost"   	"3"
	"$phongfresnelranges"  	"[.05 .7 1.5]"
	
	"$emissiveBlendEnabled" 		"1"
	"$emissiveBlendTexture"			"TemporalAssassin/Weapons/DatharonKitsune/Eldritch_Noise"
	"$emissiveblendbasetexture"		"TemporalAssassin/Weapons/DatharonKitsune/Eldritch_Noise"
	"$emissiveBlendFlowTexture"		"TemporalAssassin/Weapons/DatharonKitsune/Eldritch_Noise"
	"$emissiveblendtint" 			"[0.8 0.8 0.8]"
	"$emissiveBlendStrength" 		"1"
	"$emissiveBlendScrollVector" 	"[0.05 -0.025]"
	
	"$detail" "TemporalAssassin/detail/dt_snow3"
	"$detailscale" "50"
	"$detailblendfactor" "2"
	"$detailblendmode" "0"
}